<svg width="48" height="48" viewBox="0 0 48 48" fill="none" xmlns="http://www.w3.org/2000/svg">
<g filter="url(#filter0_d)">
<path fill-rule="evenodd" clip-rule="evenodd" d="M34.9371 32.1799H34.9117L29.4425 42.75H7.59375L13.0626 32.1799H23.999L29.4682 21.6084H40.4062L34.9371 32.1799ZM34.9371 15.8201H23.999L18.5318 26.3916H7.59375L13.0626 15.8201H13.0883L18.5556 5.25H40.4062L34.9371 15.8201Z" fill="#003850"/>
</g>
<defs>
<filter id="filter0_d" x="5.59375" y="4.25" width="36.8125" height="41.5" filterUnits="userSpaceOnUse" color-interpolation-filters="sRGB">
<feFlood flood-opacity="0" result="BackgroundImageFix"/>
<feColorMatrix in="SourceAlpha" type="matrix" values="0 0 0 0 0 0 0 0 0 0 0 0 0 0 0 0 0 0 127 0"/>
<feOffset dy="1"/>
<feGaussianBlur stdDeviation="1"/>
<feColorMatrix type="matrix" values="0 0 0 0 0 0 0 0 0 0 0 0 0 0 0 0 0 0 0.35 0"/>
<feBlend mode="normal" in2="BackgroundImageFix" result="effect1_dropShadow"/>
<feBlend mode="normal" in="SourceGraphic" in2="effect1_dropShadow" result="shape"/>
</filter>
</defs>
</svg>
